Division,WeightClassKg,Place,Name,Team,BodyweightKg,Best3SquatKg,Best3BenchKg,Best3DeadliftKg,TotalKg,Equipment,Event,Sex,BirthDate
Boys,51.71,1,Karsen Reyes,Kenedy,44.63,149.69,72.57,136.08,358.34,Unlimited,SBD,M,
Boys,51.71,DQ,Raiden Reyna,Kenedy,51.71,,,,,Unlimited,SBD,M,
Boys,51.71,DQ,David Fraga,Kenedy,51.71,,,,,Unlimited,SBD,M,
Boys,59.87,1,Morris Brown,Kenedy,59.87,183.7,113.4,188.24,485.34,Unlimited,SBD,M,
Boys,59.87,2,David Salinas,Corpus Christi Calallen,59.51,161.03,102.06,172.37,435.45,Unlimited,SBD,M,
Boys,59.87,3,Jonathan Guerrero,Yorktown,59.33,158.76,99.79,174.63,433.18,Unlimited,SBD,M,
Boys,59.87,4,Hector Garcia,Floresville,58.88,163.29,106.59,156.49,426.38,Unlimited,SBD,M,
Boys,59.87,5,Harley Anderson,Floresville,59.06,156.49,86.18,179.17,421.84,Unlimited,SBD,M,
Boys,59.87,6,Paiton Cantu,Poth,58.97,151.95,86.18,151.95,390.09,Unlimited,SBD,M,
Boys,59.87,7,Elyjah Estrada-Nelson,San Antonio Brooks Academy,58.79,106.59,54.43,138.35,299.37,Unlimited,SBD,M,
Boys,59.87,DQ,Jose Miranda,Kenedy,58.88,,,,,Unlimited,SBD,M,
Boys,67.13,1,Pedro Garcia,Corpus Christi Calallen,63.5,172.37,102.06,188.24,462.66,Unlimited,SBD,M,
Boys,67.13,2,Jace Ruiz,Three Rivers,66.86,167.83,111.13,142.88,421.84,Unlimited,SBD,M,
Boys,67.13,3,Trenton Bennett,Goliad,62.87,145.15,65.77,142.88,353.8,Unlimited,SBD,M,
Boys,74.84,1,Michael Ramos,Rockport-Fulton,69.94,199.58,122.47,204.12,526.17,Unlimited,SBD,M,
Boys,74.84,2,Jaden Cantu,Corpus Christi Calallen,73.03,199.58,145.15,176.9,521.63,Unlimited,SBD,M,
Boys,74.84,3,Josh Valdez,Goliad,74.12,190.51,127.01,174.63,492.15,Unlimited,SBD,M,
Boys,74.84,4,Moises Perdomo,Kenedy,74.53,174.63,117.93,185.97,478.54,Unlimited,SBD,M,
Boys,74.84,5,Jo Jo Martinez,Goliad,73.57,154.22,102.06,172.37,428.64,Unlimited,SBD,M,
Boys,74.84,6,Dimitri Benavides,San Antonio Brooks Academy,72.57,149.69,90.72,165.56,405.97,Unlimited,SBD,M,
Boys,74.84,7,Brian Freeman,Yorktown,70.94,158.76,81.65,156.49,396.89,Unlimited,SBD,M,
Boys,74.84,8,Gavin Munoz,San Antonio Brooks Academy,70.31,149.69,77.11,161.03,387.82,Unlimited,SBD,M,
Boys,74.84,9,John Paul Valdez,Goliad,70.03,142.88,86.18,127.01,356.07,Unlimited,SBD,M,
Boys,82.1,1,Kade Alston,Rockport-Fulton,81.65,215.46,138.35,229.06,582.87,Unlimited,SBD,M,
Boys,82.1,2,A J Vasquez,Floresville,78.38,219.99,147.42,204.12,571.53,Unlimited,SBD,M,
Boys,82.1,3,Martin Quintanilla,San Antonio Brooks Academy,81.01,224.53,124.74,215.46,564.72,Unlimited,SBD,M,
Boys,82.1,4,Joshua Jarman,Corpus Christi Calallen,78.93,197.31,124.74,197.31,519.36,Unlimited,SBD,M,
Boys,82.1,5,Brennon Freeman,Yorktown,82.1,176.9,108.86,174.63,460.4,Unlimited,SBD,M,
Boys,82.1,6,Larry Saenz,Corpus Christi Calallen,80.29,192.78,108.86,149.69,451.32,Unlimited,SBD,M,
Boys,82.1,7,Benjamin Delgado,San Antonio Brooks Academy,81.28,140.61,70.31,140.61,351.53,Unlimited,SBD,M,
Boys,89.81,1,Jason Coronado,Floresville,87.86,247.21,142.88,260.82,650.91,Unlimited,SBD,M,
Boys,89.81,2,Adrian Wilson,Floresville,88.99,240.4,138.35,215.46,594.21,Unlimited,SBD,M,
Boys,89.81,3,Willie Chapa,Poth,86.82,183.7,124.74,190.51,498.95,Unlimited,SBD,M,
Boys,89.81,4,Justin Guerrero,Yorktown,88.9,192.78,115.67,163.29,471.74,Unlimited,SBD,M,
Boys,89.81,5,Eric Cavazos,Goliad,83.73,142.88,83.91,131.54,358.34,Unlimited,SBD,M,
Boys,89.81,DQ,Kelten Weber,Corpus Christi Calallen,89.18,206.38,,,,Unlimited,SBD,M,
Boys,89.81,DQ,Michael Romo,Kenedy,88,,,,,Unlimited,SBD,M,
Boys,99.79,1,Angel Garcia,San Antonio Brooks Academy,95.89,229.06,108.86,217.72,555.65,Unlimited,SBD,M,
Boys,99.79,2,Joshua Sanchez,San Antonio Brooks Academy,95.71,213.19,129.27,204.12,546.58,Unlimited,SBD,M,
Boys,99.79,3,Gideon Flores,San Antonio Brooks Academy,93.62,188.24,115.67,201.85,505.76,Unlimited,SBD,M,
Boys,99.79,4,Anthony Vasquez,Kenedy,92.17,197.31,104.33,192.78,494.42,Unlimited,SBD,M,
Boys,99.79,DQ,Jesse Fragg,Kenedy,92.99,188.24,,,,Unlimited,SBD,M,
Boys,99.79,DQ,Owen Espinoza,Kenedy,95.71,,,,,Unlimited,SBD,M,
Boys,109.77,1,Fabian Saenz,Corpus Christi Calallen,102.69,249.48,138.35,226.8,614.62,Unlimited,SBD,M,
Boys,109.77,2,Nolan Garcia,Floresville,106.87,231.33,122.47,219.99,573.79,Unlimited,SBD,M,
Boys,109.77,3,Xavier Olquin,Floresville,102.33,210.92,151.95,206.38,569.26,Unlimited,SBD,M,
Boys,109.77,4,Cameron Garcia,Three Rivers,100.24,183.7,133.81,183.7,501.22,Unlimited,SBD,M,
Boys,109.77,5,Dominick Reyes,San Antonio Brooks Academy,102.51,79.38,58.97,117.93,256.28,Unlimited,SBD,M,
Boys,109.77,DQ,Adahir Ruiz,Poth,106.87,,,,,Unlimited,SBD,M,
Boys,109.77,DQ,Sebastian Carrillo,Pearsall,109.77,244.94,122.47,,,Unlimited,SBD,M,
Boys,109.77,DQ,Richard Rubio,Corpus Christi Calallen,108.77,247.21,,,,Unlimited,SBD,M,
Boys,124.74,1,Colton Kalhoefer,Rockport-Fulton,114.49,247.21,158.76,229.06,635.03,Unlimited,SBD,M,
Boys,124.74,2,Joaquin Tagle,Corpus Christi Calallen,118.98,208.65,183.7,188.24,580.6,Unlimited,SBD,M,
Boys,124.74,3,Omar Torres,Floresville,111.13,222.26,129.27,226.8,578.33,Unlimited,SBD,M,
Boys,124.74,4,Isaac Tello,San Antonio Brooks Academy,112.49,235.87,120.2,208.65,564.72,Unlimited,SBD,M,
Boys,124.74,5,Coleman Anderson,Three Rivers,118.12,181.44,142.88,183.7,508.02,Unlimited,SBD,M,
Boys,124.74,6,Andrew Morin,Three Rivers,118.57,188.24,115.67,183.7,487.61,Unlimited,SBD,M,
Boys,124.74,DQ,Joseph Delarosa,Pearsall,123.51,247.21,190.51,,,Unlimited,SBD,M,
Boys,139.71,1,Brandon Laureano,San Antonio Brooks Academy,127.73,149.69,83.91,195.04,428.64,Unlimited,SBD,M,
Boys,139.71+,1,Exodus Acevedo,Floresville,141.61,244.94,174.63,226.8,646.37,Unlimited,SBD,M,
Boys,139.71+,2,Carson Sifuentes,Corpus Christi Calallen,154.95,240.4,149.69,183.7,573.79,Unlimited,SBD,M,
Boys,139.71+,3,Nicolus Moreno,Floresville,146.06,206.38,129.27,183.7,519.36,Unlimited,SBD,M,
Boys,139.71+,4,Dalton Romo,Three Rivers,182.53,108.86,90.72,149.69,349.27,Unlimited,SBD,M,
Boys,139.71+,DQ,Hunter Hall,Yorktown,140.11,,,,,Unlimited,SBD,M,
Boys,139.71+,DQ,Riley Herrera,Kenedy,140.11,233.6,142.88,,,Unlimited,SBD,M,
