Division,WeightClassKg,Place,Name,Team,BodyweightKg,Best3SquatKg,Best3BenchKg,Best3DeadliftKg,TotalKg,Equipment,Event,Sex,BirthDate
Boys,51.71,1,Devon Hernandez,San Diego,50.08,108.86,83.91,142.88,335.66,Unlimited,SBD,M,
Boys,51.71,2,Noel Garcia,San Diego,48.99,129.27,70.31,127.01,326.59,Unlimited,SBD,M,
Boys,51.71,3,Dominic Padron,Mathis,48.63,113.4,74.84,129.27,317.51,Unlimited,SBD,M,
Boys,51.71,4,Alejandro Garcia,Santa Gertrudis Academy,50.35,113.4,74.84,115.67,303.91,Unlimited,SBD,M,
Boys,51.71,5,Jose Delgado,George West,49.9,92.99,61.23,102.06,256.28,Unlimited,SBD,M,
Boys,51.71,6,Jace Magee,Alice,51.35,92.99,45.36,102.06,240.4,Unlimited,SBD,M,
Boys,51.71,DQ,Rodriguez Alex,Odem,48.9,83.91,,,,Unlimited,SBD,M,
Boys,55.79,1,Cisneros Jeriah,Odem,55.34,183.7,97.52,174.63,455.86,Unlimited,SBD,M,
Boys,55.79,2,Derick Lara,San Diego,55.52,158.76,108.86,165.56,433.18,Unlimited,SBD,M,
Boys,55.79,3,Jonathon Ruvalcaba,Alice,54.88,115.67,97.52,140.61,353.8,Unlimited,SBD,M,
Boys,55.79,4,Landon Liseros,Mathis,55.25,140.61,83.91,120.2,344.73,Unlimited,SBD,M,
Boys,55.79,5,Izaac Orta,Santa Gertrudis Academy,51.98,120.2,70.31,138.35,328.85,Unlimited,SBD,M,
Boys,55.79,6,Jeremy Godinez,Ben Bolt-Palito Blanco,54.16,136.08,72.57,113.4,322.05,Unlimited,SBD,M,
Boys,55.79,7,Chase Vickers,Freer,53.61,92.99,52.16,111.13,256.28,Unlimited,SBD,M,
Boys,55.79,DQ,Jonathan Aguilar,Ben Bolt-Palito Blanco,53.07,,,,,Unlimited,SBD,M,
Boys,55.79,DQ,Hernandez Jacob,Odem,55.79,131.54,,,,Unlimited,SBD,M,
Boys,59.87,1,J-Den Martinez,Mathis,59.33,172.37,92.99,179.17,444.52,Unlimited,SBD,M,
Boys,59.87,2,Zaydin Espinosa,Mathis,59.87,158.76,106.59,170.1,435.45,Unlimited,SBD,M,
Boys,59.87,3,Bruno Rodriguez,Beeville Jones,59.78,138.35,92.99,154.22,385.55,Unlimited,SBD,M,
Boys,59.87,4,Thomas Charlie,Odem,58.88,129.27,81.65,136.08,347,Unlimited,SBD,M,
Boys,59.87,5,Chasen Chambers,Skidmore-Tynan,58.97,136.08,77.11,131.54,344.73,Unlimited,SBD,M,
Boys,59.87,6,Izaak Saenz,Ben Bolt-Palito Blanco,59.6,102.06,65.77,142.88,310.71,Unlimited,SBD,M,
Boys,59.87,DQ,Jj Garcia,Pawnee,59.15,,,,,Unlimited,SBD,M,
Boys,59.87,DQ,Joseph Silva,Alice,59.87,,,,,Unlimited,SBD,M,
Boys,67.13,1,Flores Phillip,Odem,65.68,224.53,133.81,183.7,542.04,Unlimited,SBD,M,
Boys,67.13,2,Maeson Acevedo,Poteet,66.68,210.92,113.4,215.46,539.77,Unlimited,SBD,M,
Boys,67.13,3,Garon Ortiz,San Diego,66.68,195.04,142.88,192.78,530.7,Unlimited,SBD,M,
Boys,67.13,4,Isaiah Saenz,San Diego,65.77,195.04,115.67,197.31,508.02,Unlimited,SBD,M,
Boys,67.13,5,Kim Yates,George West,63.96,183.7,124.74,163.29,471.74,Unlimited,SBD,M,
Boys,67.13,6,Estrada Gabriel,Corpus Christi John Paul II High School,66.95,151.95,79.38,183.7,415.04,Unlimited,SBD,M,
Boys,67.13,7,Matthew Castillo,Banquete,63.41,122.47,74.84,149.69,347,Unlimited,SBD,M,
Boys,67.13,8,Jayden Hernandez,George West,64.41,127.01,83.91,120.2,331.12,Unlimited,SBD,M,
Boys,67.13,9,Marcus Perez,Freer,66.41,104.33,65.77,120.2,290.3,Unlimited,SBD,M,
Boys,67.13,10,Braeden Rodriguez,Skidmore-Tynan,66.04,92.99,52.16,108.86,254.01,Unlimited,SBD,M,
Boys,67.13,11,Joshua Benavidez,Banquete,62.6,88.45,47.63,99.79,235.87,Unlimited,SBD,M,
Boys,67.13,12,Joseph Richardson,Santa Gertrudis Academy,62.69,61.23,52.16,90.72,204.12,Unlimited,SBD,M,
Boys,67.13,DQ,Adrian Moreno,Santa Gertrudis Academy,61.78,142.88,,,,Unlimited,SBD,M,
Boys,67.13,DQ,Xavier Garcia,Corpus Christi West Oso,67.13,,,,,Unlimited,SBD,M,
Boys,67.13,DQ,Mario Vega,Ben Bolt-Palito Blanco,64.77,174.63,,,,Unlimited,SBD,M,
Boys,67.13,DQ,Joaquin Ureste,Pawnee,67.13,111.13,,,,Unlimited,SBD,M,
Boys,67.13,DQ,Benjamin Molina,Corpus Christi West Oso,67.13,,,,,Unlimited,SBD,M,
Boys,67.13,DQ,Salinas Ryan,Odem,67.13,,,,,Unlimited,SBD,M,
Boys,67.13,DQ,Gael Pina,Freer,67.13,,,,,Unlimited,SBD,M,
Boys,67.13,DQ,Noah Perez,Ben Bolt-Palito Blanco,64.14,145.15,,,,Unlimited,SBD,M,
Boys,74.84,1,Jayden Ibarra,Poteet,72.48,256.28,149.69,244.94,650.91,Unlimited,SBD,M,
Boys,74.84,2,Aaron Acosta,Mathis,74.57,226.8,167.83,233.6,628.23,Unlimited,SBD,M,
Boys,74.84,3,Marc Macias,Alice,71.3,251.74,147.42,226.8,625.96,Unlimited,SBD,M,
Boys,74.84,4,Cruz Itzac,Odem,73.39,197.31,161.03,231.33,589.67,Unlimited,SBD,M,
Boys,74.84,5,Esteban Garcia,Alice,73.03,226.8,131.54,226.8,585.13,Unlimited,SBD,M,
Boys,74.84,6,Matthew Corona,San Diego,71.67,219.99,142.88,213.19,576.06,Unlimited,SBD,M,
Boys,74.84,7,Castillo Martin,Odem,71.12,183.7,147.42,192.78,523.9,Unlimited,SBD,M,
Boys,74.84,8,Israel Ramirez,Ingleside,72.12,183.7,147.42,192.78,523.9,Unlimited,SBD,M,
Boys,74.84,9,David Rodriguez,Mathis,67.36,170.1,149.69,167.83,487.61,Unlimited,SBD,M,
Boys,74.84,10,Brodie Shaw,George West,74.03,170.1,122.47,165.56,458.13,Unlimited,SBD,M,
Boys,74.84,11,Romero Isaac,Odem,68.31,170.1,115.67,167.83,453.59,Unlimited,SBD,M,
Boys,74.84,12,Isaiah Bazaldua,Santa Gertrudis Academy,71.21,161.03,99.79,181.44,442.25,Unlimited,SBD,M,
Boys,74.84,13,Donovan Garcia,Skidmore-Tynan,72.57,129.27,77.11,188.24,394.63,Unlimited,SBD,M,
Boys,74.84,14,Brennan Keese,Skidmore-Tynan,67.59,147.42,74.84,163.29,385.55,Unlimited,SBD,M,
Boys,74.84,15,Avtandil Metreveli,George West,73.94,136.08,95.25,136.08,367.41,Unlimited,SBD,M,
Boys,74.84,16,Kaleb Cruz,Beeville Jones,71.76,124.74,79.38,154.22,358.34,Unlimited,SBD,M,
Boys,74.84,17,Izaak Gonzalez,Freer,70.31,127.01,83.91,127.01,337.93,Unlimited,SBD,M,
Boys,74.84,18,Eli Mireles,Santa Gertrudis Academy,71.3,115.67,70.31,147.42,333.39,Unlimited,SBD,M,
Boys,74.84,19,Jose Garcia,Santa Gertrudis Academy,73.12,106.59,68.04,117.93,292.57,Unlimited,SBD,M,
Boys,74.84,DQ,Carson Lopez,Ingleside,70.22,,,,,Unlimited,SBD,M,
Boys,74.84,DQ,Cornelio Valdez,Poteet,72.94,,,,,Unlimited,SBD,M,
Boys,74.84,DQ,Alex Gonzalez,Freer,74.84,,,,,Unlimited,SBD,M,
Boys,74.84,DQ,Jacob Edgington,Banquete,73.94,,,,,Unlimited,SBD,M,
Boys,74.84,DQ,Mhenad Rebugio,Skidmore-Tynan,68.67,,,,,Unlimited,SBD,M,
Boys,74.84,DQ,Roel Gonzalez,Alice,73.3,226.8,131.54,,,Unlimited,SBD,M,
Boys,74.84,DQ,Roberto Valle,Mathis,72.94,,,,,Unlimited,SBD,M,
Boys,82.1,1,Kristofer Ruiz,San Diego,76.2,197.31,156.49,233.6,587.4,Unlimited,SBD,M,
Boys,82.1,2,Jared Rodriguez,San Diego,78.11,231.33,136.08,215.46,582.87,Unlimited,SBD,M,
Boys,82.1,3,Ayden Martinez,Mathis,81.65,226.8,122.47,226.8,576.06,Unlimited,SBD,M,
Boys,82.1,4,Alex Castellano,George West,82.1,210.92,142.88,195.04,548.85,Unlimited,SBD,M,
Boys,82.1,5,Estevan Escobedo,Santa Gertrudis Academy,80.2,195.04,136.08,210.92,542.04,Unlimited,SBD,M,
Boys,82.1,6,Evan Vega,Freer,79.02,190.51,122.47,174.63,487.61,Unlimited,SBD,M,
Boys,82.1,7,Draven Ayala,Corpus Christi West Oso,76.84,176.9,108.86,181.44,467.2,Unlimited,SBD,M,
Boys,82.1,8,Armando Perez,Alice,79.47,163.29,115.67,174.63,453.59,Unlimited,SBD,M,
Boys,82.1,9,Dylan Thomisee,George West,76.57,165.56,111.13,158.76,435.45,Unlimited,SBD,M,
Boys,82.1,10,Isaiah Rodriguez,Corpus Christi West Oso,74.93,147.42,79.38,161.03,387.82,Unlimited,SBD,M,
Boys,82.1,11,Christovin Cisneros,George West,80.74,145.15,97.52,131.54,374.21,Unlimited,SBD,M,
Boys,82.1,12,Marcelo Benavidez,Banquete,81.47,138.35,83.91,145.15,367.41,Unlimited,SBD,M,
Boys,82.1,13,William Ratcliff,Banquete,78.2,127.01,81.65,149.69,358.34,Unlimited,SBD,M,
Boys,82.1,14,Wyatt Burnett,George West,75.11,142.88,74.84,136.08,353.8,Unlimited,SBD,M,
Boys,82.1,DQ,Duke Bernal,Mathis,75.21,,,,,Unlimited,SBD,M,
Boys,82.1,DQ,Kris Guzman,Ben Bolt-Palito Blanco,80.83,,,,,Unlimited,SBD,M,
Boys,82.1,DQ,Joseph Reyes,Corpus Christi West Oso,82.1,,,,,Unlimited,SBD,M,
Boys,82.1,DQ,Christian Garcia,Ingleside,82.1,,,,,Unlimited,SBD,M,
Boys,82.1,DQ,Gael Pardo,Ingleside,82.1,,,,,Unlimited,SBD,M,
Boys,82.1,DQ,Christian Garcia,Banquete,82.1,,,,,Unlimited,SBD,M,
Boys,89.81,1,Ryne Espinoza,Beeville Jones,88.27,319.78,199.58,260.82,780.18,Unlimited,SBD,M,
Boys,89.81,2,Damian Trevino,Mathis,88,249.48,192.78,240.4,682.66,Unlimited,SBD,M,
Boys,89.81,3,Derek Barrera,San Diego,82.83,226.8,158.76,215.46,601.01,Unlimited,SBD,M,
Boys,89.81,4,Donelle Wright,Beeville Jones,85.82,240.4,129.27,204.12,573.79,Unlimited,SBD,M,
Boys,89.81,5,Alec Arguijo,Poteet,88.45,210.92,117.93,224.53,553.38,Unlimited,SBD,M,
Boys,89.81,6,David Courvier,Ingleside,85.64,204.12,115.67,197.31,517.1,Unlimited,SBD,M,
Boys,89.81,7,Eric Luarca,Alice,86.09,199.58,115.67,183.7,498.95,Unlimited,SBD,M,
Boys,89.81,8,Wallace Ham-Garcia,George West,87.09,183.7,102.06,188.24,474,Unlimited,SBD,M,
Boys,89.81,9,Langley Colton,Odem,84.64,106.59,70.31,290.3,467.2,Unlimited,SBD,M,
Boys,89.81,10,Jason Rodriguez,San Diego,82.92,147.42,61.23,165.56,374.21,Unlimited,SBD,M,
Boys,89.81,11,Galloway Joaquin,Corpus Christi John Paul II High School,84.82,129.27,72.57,142.88,344.73,Unlimited,SBD,M,
Boys,89.81,12,Braden Kaedel,George West,88.9,102.06,92.99,129.27,324.32,Unlimited,SBD,M,
Boys,89.81,13,Vincent Moreno,Santa Gertrudis Academy,87.54,106.59,54.43,124.74,285.76,Unlimited,SBD,M,
Boys,89.81,DQ,Chad Aguilar,Corpus Christi West Oso,88.18,142.88,,,,Unlimited,SBD,M,
Boys,89.81,DQ,Austin Hernandez,Pawnee,88.9,104.33,,,,Unlimited,SBD,M,
Boys,99.79,1,Orlando Cantu,Alice,98.16,265.35,199.58,249.48,714.41,Unlimited,SBD,M,
Boys,99.79,2,Jallen Medina,George West,94.8,285.76,165.56,215.46,666.78,Unlimited,SBD,M,
Boys,99.79,3,Jacob Martin,Beeville Jones,99.34,260.82,176.9,219.99,657.71,Unlimited,SBD,M,
Boys,99.79,4,Logan McGrath,Ingleside,96.71,226.8,176.9,206.38,610.08,Unlimited,SBD,M,
Boys,99.79,5,Josh Stillman,Ingleside,97.79,226.8,151.95,219.99,598.74,Unlimited,SBD,M,
Boys,99.79,6,Nathan De La Rosa,Santa Gertrudis Academy,92.53,206.38,142.88,201.85,551.11,Unlimited,SBD,M,
Boys,99.79,7,Dominic Smith,Beeville Jones,96.25,206.38,142.88,201.85,551.11,Unlimited,SBD,M,
Boys,99.79,8,Jonah Uribe,Freer,96.89,208.65,147.42,192.78,548.85,Unlimited,SBD,M,
Boys,99.79,9,Zane Wills,Banquete,95.35,185.97,113.4,229.06,528.44,Unlimited,SBD,M,
Boys,99.79,10,Elijah Riojas,Santa Gertrudis Academy,94.98,213.19,131.54,181.44,526.17,Unlimited,SBD,M,
Boys,99.79,11,Justin Leal,Mathis,97.7,219.99,136.08,163.29,519.36,Unlimited,SBD,M,
Boys,99.79,12,Silas Shaw,George West,91.35,183.7,133.81,181.44,498.95,Unlimited,SBD,M,
Boys,99.79,13,Landon Hinojosa,Freer,95.71,176.9,102.06,172.37,451.32,Unlimited,SBD,M,
Boys,99.79,14,Isaak Torrez,Freer,90.45,163.29,102.06,165.56,430.91,Unlimited,SBD,M,
Boys,99.79,15,Aaron Canseco,Corpus Christi West Oso,95.62,147.42,136.08,147.42,430.91,Unlimited,SBD,M,
Boys,99.79,16,Idan Solis,Ingleside,99.16,172.37,102.06,151.95,426.38,Unlimited,SBD,M,
Boys,99.79,17,Izaiah Gomez,Banquete,93.71,151.95,115.67,156.49,424.11,Unlimited,SBD,M,
Boys,99.79,18,Manuel Alvarez,Corpus Christi West Oso,93.26,142.88,92.99,136.08,371.95,Unlimited,SBD,M,
Boys,99.79,19,Gage Gonzales,Skidmore-Tynan,98.7,147.42,83.91,131.54,362.87,Unlimited,SBD,M,
Boys,99.79,20,Ernesto DeLeon,Skidmore-Tynan,98.61,127.01,74.84,129.27,331.12,Unlimited,SBD,M,
Boys,99.79,21,John Marroguin,Santa Gertrudis Academy,98.52,99.79,40.82,120.2,260.82,Unlimited,SBD,M,
Boys,99.79,DQ,Rosario Luna,Skidmore-Tynan,99.79,,,,,Unlimited,SBD,M,
Boys,99.79,DQ,Brylan Marmolejo,Ingleside,99.79,,,,,Unlimited,SBD,M,
Boys,109.77,1,Cayetano Vidaurri,Beeville Jones,106.87,340.19,226.8,272.16,839.15,Unlimited,SBD,M,
Boys,109.77,2,Izaiah Ruiz,San Diego,109.13,224.53,142.88,192.78,560.19,Unlimited,SBD,M,
Boys,109.77,3,Daniel Tellez,George West,104.33,192.78,127.01,158.76,478.54,Unlimited,SBD,M,
Boys,109.77,4,Oscar Villareal,Skidmore-Tynan,106.23,181.44,120.2,165.56,467.2,Unlimited,SBD,M,
Boys,109.77,5,Jason Rodrigues,Freer,101.42,185.97,99.79,165.56,451.32,Unlimited,SBD,M,
Boys,109.77,6,Daymian Moctezuma,San Diego,107.23,158.76,102.06,158.76,419.57,Unlimited,SBD,M,
Boys,109.77,7,Brandon Galloway,Skidmore-Tynan,105.23,129.27,90.72,154.22,374.21,Unlimited,SBD,M,
Boys,109.77,DQ,Ethan Sanchez,Beeville Jones,104.87,274.42,,,,Unlimited,SBD,M,
Boys,124.74,1,Arnulfo Puga,Beeville Jones,123.74,312.98,192.78,249.48,755.23,Unlimited,SBD,M,
Boys,124.74,2,Manuel Hinojosa,Ingleside,116.21,265.35,185.97,235.87,687.19,Unlimited,SBD,M,
Boys,124.74,3,Manuel Hernandez,Beeville Jones,120.38,272.16,192.78,204.12,669.05,Unlimited,SBD,M,
Boys,124.74,4,Anthony Leyba,Corpus Christi West Oso,112.76,265.35,142.88,215.46,623.69,Unlimited,SBD,M,
Boys,124.74,5,Daniel García,Banquete,122.29,208.65,156.49,208.65,573.79,Unlimited,SBD,M,
Boys,124.74,6,Clyde Veliz,Mathis,121.83,265.35,147.42,142.88,555.65,Unlimited,SBD,M,
Boys,124.74,7,Garcia Milton,Odem,124.1,213.19,142.88,183.7,539.77,Unlimited,SBD,M,
Boys,124.74,8,Esi Escobar,Alice,123.29,206.38,127.01,197.31,530.7,Unlimited,SBD,M,
Boys,124.74,9,Erique Ramirez,Skidmore-Tynan,110.68,154.22,136.08,165.56,455.86,Unlimited,SBD,M,
Boys,124.74,10,Tyler Stewart,Poteet,118.21,113.4,79.38,147.42,340.19,Unlimited,SBD,M,
Boys,124.74,11,Gabriel Guajardo,Freer,117.03,131.54,68.04,111.13,310.71,Unlimited,SBD,M,
Boys,124.74,DQ,Nathan Morgan,Ingleside,124.74,,,,,Unlimited,SBD,M,
Boys,124.74,DQ,Gonzalez AJ,Odem,124.74,,,,,Unlimited,SBD,M,
Boys,139.71,1,Jesus Martinez,Beeville Jones,138.07,272.16,226.8,251.74,750.7,Unlimited,SBD,M,
Boys,139.71,2,Estevan Cabrera,Alice,128.82,242.67,192.78,188.24,623.69,Unlimited,SBD,M,
Boys,139.71,3,Tyler Rosales,Alice,132.45,226.8,163.29,188.24,578.33,Unlimited,SBD,M,
Boys,139.71+,1,Peyton Torres,Beeville Jones,161.3,312.98,226.8,260.82,800.59,Unlimited,SBD,M,
Boys,139.71+,2,Jose Flores,Skidmore-Tynan,167.47,188.24,138.35,176.9,503.49,Unlimited,SBD,M,
Boys,139.71+,3,Ben Shaw,George West,153.77,142.88,108.86,154.22,405.97,Unlimited,SBD,M,
