Division,WeightClassKg,Place,Name,Team,BodyweightKg,Best3SquatKg,Best3BenchKg,Best3DeadliftKg,TotalKg,Equipment,Event,Sex,BirthDate
Boys,51.71,1,Dominic Padron,Mathis,48.72,117.93,79.38,171,368.32,Unlimited,SBD,M,
Boys,51.71,2,Daniel Htoo,Port Lavaca Calhoun,46.72,111.13,65.77,129.27,306.17,Unlimited,SBD,M,
Boys,51.71,3,Zachary Cantu,Pettus,49.62,92.99,43.09,95.25,231.33,Unlimited,SBD,M,
Boys,51.71,DQ,Jose Gonzalez,Cotulla,50.71,147.42,83.91,,,Unlimited,SBD,M,
Boys,55.79,1,Shel Htoo,Port Lavaca Calhoun,55.43,170.1,124.74,188.24,483.08,Unlimited,SBD,M,
Boys,55.79,2,Noah Blevins,Goliad,54.88,176.9,97.52,163.29,437.72,Unlimited,SBD,M,
Boys,55.79,3,Jonatthan Ruvalcaba,Alice,54.25,145.15,106.59,167.83,419.57,Unlimited,SBD,M,
Boys,55.79,4,Jonivan Beas,Banquete,53.16,138.35,72.57,142.88,353.8,Unlimited,SBD,M,
Boys,55.79,5,Jaiden Manero,Rockport-Fulton,55.16,147.42,70.31,136.08,353.8,Unlimited,SBD,M,
Boys,55.79,6,Jace McGee,Alice,52.62,92.99,56.7,106.59,256.28,Unlimited,SBD,M,
Boys,55.79,DQ,Landon Liserio,Mathis,55.52,147.42,99.79,,,Unlimited,SBD,M,
Boys,59.87,1,Michael Muniz,Goliad,58.06,201.85,124.74,192.78,519.36,Unlimited,SBD,M,
Boys,59.87,2,Romeo Pena,Premont,59.78,167.83,120.2,183.7,471.74,Unlimited,SBD,M,
Boys,59.87,3,Elijah Bland,Victoria West,58.51,174.63,102.06,165.56,442.25,Unlimited,SBD,M,
Boys,59.87,4,J-Den Martinez,Mathis,59.87,174.63,90.72,172.37,437.72,Unlimited,SBD,M,
Boys,59.87,5,Bruno Rodriguez,Beeville Jones,59.78,158.76,102.06,170.1,430.91,Unlimited,SBD,M,
Boys,59.87,6,Jose Perez,Bruni,58.79,165.56,86.18,172.37,424.11,Unlimited,SBD,M,
Boys,59.87,7,Eric Ramos,Bruni,59.6,165.56,102.06,149.69,417.3,Unlimited,SBD,M,
Boys,59.87,8,Lucian Briseno,Victoria West,58.79,140.61,102.06,161.03,403.7,Unlimited,SBD,M,
Boys,59.87,9,Deyton Felan,Goliad,59.78,138.35,90.72,158.76,387.82,Unlimited,SBD,M,
Boys,59.87,10,Anthony Lopez,Victoria East,59.87,136.08,92.99,124.74,353.8,Unlimited,SBD,M,
Boys,59.87,11,Chasen Chambers,Skidmore-Tynan,59.24,136.08,74.84,131.54,342.46,Unlimited,SBD,M,
Boys,59.87,DQ,Jj Garcia,Pawnee,59.87,68.04,,,,Unlimited,SBD,M,
Boys,67.13,1,Marco Benavidez,Cotulla,67.13,242.67,165.56,231.33,639.57,Unlimited,SBD,M,
Boys,67.13,2,Manny Vega,Premont,66.04,199.58,129.27,185.97,514.83,Unlimited,SBD,M,
Boys,67.13,3,Elian Sanchez,Goliad,66.77,183.7,113.4,206.38,503.49,Unlimited,SBD,M,
Boys,67.13,4,Jayden Gomez,Banquete,65.14,167.83,133.81,190.51,492.15,Unlimited,SBD,M,
Boys,67.13,5,Blake Davis,Port Lavaca Calhoun,63.59,149.69,86.18,174.63,410.5,Unlimited,SBD,M,
Boys,67.13,6,Jayden Hernandez,George West,64.77,138.35,97.52,122.47,358.34,Unlimited,SBD,M,
Boys,67.13,7,Israel Charles,Pettus,66.68,122.47,83.91,140.61,347,Unlimited,SBD,M,
Boys,67.13,8,Joe Harper,Bruni,63.14,117.93,70.31,154.22,342.46,Unlimited,SBD,M,
Boys,67.13,9,Matthew Casstillo,Banquete,63.87,117.93,74.84,136.08,328.85,Unlimited,SBD,M,
Boys,67.13,10,Joshua Benavidez,Banquete,63.14,99.79,49.9,106.59,256.28,Unlimited,SBD,M,
Boys,67.13,DQ,David Varel,Port Lavaca Calhoun,66.13,231.33,,,,Unlimited,SBD,M,
Boys,67.13,DQ,Aaron Posada,Victoria West,66.41,,,,,Unlimited,SBD,M,
Boys,67.13,DQ,Joquin Ureste,Pawnee,65.86,72.57,,,,Unlimited,SBD,M,
Boys,67.13,DQ,Kim Yates,George West,67.04,183.7,,,,Unlimited,SBD,M,
Boys,74.84,1,Aaron Acosta,Mathis,74.84,249.48,183.7,249.48,682.66,Unlimited,SBD,M,
Boys,74.84,2,Mason Gwosdz,Victoria East,69.67,254.01,170.1,242.67,666.78,Unlimited,SBD,M,
Boys,74.84,3,Marc Macias,Alice,71.4,256.28,149.69,231.33,637.3,Unlimited,SBD,M,
Boys,74.84,4,Carlon Helms,Victoria East,74.48,249.48,140.61,247.21,637.3,Unlimited,SBD,M,
Boys,74.84,5,Roel Gonzalez III,Alice,73.3,244.94,149.69,240.4,635.03,Unlimited,SBD,M,
Boys,74.84,6,Michael Ramos,Rockport-Fulton,73.03,231.33,158.76,229.06,619.15,Unlimited,SBD,M,
Boys,74.84,7,Traey Alvarado,Rockport-Fulton,70.31,238.14,149.69,226.8,614.62,Unlimited,SBD,M,
Boys,74.84,8,Daniel Moncada,Cotulla,73.75,204.12,136.08,206.38,546.58,Unlimited,SBD,M,
Boys,74.84,9,William Stephenson,Rockport-Fulton,73.75,201.85,113.4,197.31,512.56,Unlimited,SBD,M,
Boys,74.84,10,David Rodriguez,Mathis,68.22,174.63,142.88,172.37,489.88,Unlimited,SBD,M,
Boys,74.84,11,Christian Garcia,Banquete,73.3,174.63,115.67,185.97,476.27,Unlimited,SBD,M,
Boys,74.84,12,Matthew Hernandez,Pettus,72.12,174.63,115.67,174.63,464.93,Unlimited,SBD,M,
Boys,74.84,13,Roberto Valle,Mathis,73.48,183.7,108.86,158.76,451.32,Unlimited,SBD,M,
Boys,74.84,14,Dylan Hill,Port Lavaca Calhoun,68.31,149.69,90.72,185.97,426.38,Unlimited,SBD,M,
Boys,74.84,15,Kaleb Cruz,Beeville Jones,72.71,154.22,86.18,163.29,403.7,Unlimited,SBD,M,
Boys,74.84,DQ,Jacob Edgington,Banquete,74.66,183.7,,,,Unlimited,SBD,M,
Boys,74.84,DQ,Maddox Simpson,Goliad,68.76,181.44,142.88,,,Unlimited,SBD,M,
Boys,74.84,DQ,Isaiah Rodriguez,Corpus Christi West Oso,72.21,,,,,Unlimited,SBD,M,
Boys,74.84,DQ,Abel Teneyuca,Cotulla,71.4,199.58,113.4,,,Unlimited,SBD,M,
Boys,74.84,DQ,Logan Lacy,Premont,74.03,,,,,Unlimited,SBD,M,
Boys,74.84,DQ,Brennan Keese,Skidmore-Tynan,68.58,151.95,74.84,,,Unlimited,SBD,M,
Boys,74.84,DQ,Mhenad Rebugio,Skidmore-Tynan,68.31,172.37,90.72,,,Unlimited,SBD,M,
Boys,74.84,DQ,Duke Bernal,Mathis,74.39,215.46,,,,Unlimited,SBD,M,
Boys,74.84,DQ,Donovan Garcia,Skidmore-Tynan,73.94,165.56,77.11,,,Unlimited,SBD,M,
Boys,74.84,DQ,Carson Lopez,Ingleside,70.31,174.63,124.74,,,Unlimited,SBD,M,
Boys,82.1,1,Randy Garcia,Cotulla,80.92,215.46,142.88,206.38,564.72,Unlimited,SBD,M,
Boys,82.1,2,Sean Howell,Rockport-Fulton,77.02,195.04,113.4,208.65,517.1,Unlimited,SBD,M,
Boys,82.1,3,Armando Perez,Alice,80.56,192.78,136.08,183.7,512.56,Unlimited,SBD,M,
Boys,82.1,4,Adharion Walker,Victoria East,75.3,199.58,129.27,174.63,503.49,Unlimited,SBD,M,
Boys,82.1,5,Dylan Thomisee,George West,76.84,174.63,120.2,158.76,453.59,Unlimited,SBD,M,
Boys,82.1,6,William Ratcliff,Banquete,81.37,147.42,83.91,161.03,392.36,Unlimited,SBD,M,
Boys,82.1,7,Wyatt Burnett,George West,76.02,145.15,74.84,142.88,362.87,Unlimited,SBD,M,
Boys,82.1,8,Alfredo Perez,Beeville Jones,81.92,142.88,70.31,136.08,349.27,Unlimited,SBD,M,
Boys,82.1,DQ,Rhilan Klimp,Beeville Jones,78.15,102.06,58.97,,,Unlimited,SBD,M,
Boys,82.1,DQ,Ayden Martinez,Mathis,81.37,,,,,Unlimited,SBD,M,
Boys,82.1,DQ,Ricardo Ruiz,Cotulla,81.47,263.08,,,,Unlimited,SBD,M,
Boys,82.1,DQ,Gael Pardo,Ingleside,82.1,,,,,Unlimited,SBD,M,
Boys,82.1,DQ,Matthew Rodriguez,Corpus Christi Tuloso-Midway,80.01,,,,,Unlimited,SBD,M,
Boys,82.1,DQ,Trenton Bennett,Goliad,76.2,206.38,142.88,,,Unlimited,SBD,M,
Boys,89.81,1,Ryne Espinoza,Beeville Jones,89.45,337.93,217.72,272.16,827.81,Unlimited,SBD,M,
Boys,89.81,2,Noah Neibrandt,Victoria West,88.63,301.64,183.7,272.16,757.5,Unlimited,SBD,M,
Boys,89.81,3,Hunter Gaines,Rockport-Fulton,86.91,272.16,172.37,226.8,671.32,Unlimited,SBD,M,
Boys,89.81,4,Brayden Reece,Victoria East,86.82,242.67,147.42,226.8,616.89,Unlimited,SBD,M,
Boys,89.81,5,Eric Luarca,Alice,89.09,226.8,120.2,217.72,564.72,Unlimited,SBD,M,
Boys,89.81,6,Alex Castellano,George West,82.83,219.99,142.88,197.31,560.19,Unlimited,SBD,M,
Boys,89.81,7,Eric Aldaco,Cotulla,89.36,215.46,147.42,197.31,560.19,Unlimited,SBD,M,
Boys,89.81,8,David Courvier,Ingleside,86.36,208.65,131.54,204.12,544.31,Unlimited,SBD,M,
Boys,89.81,9,Caleb Alvarez,Victoria East,87.63,208.65,129.27,197.31,535.24,Unlimited,SBD,M,
Boys,89.81,10,Angel Avarado,Rockport-Fulton,87.09,208.65,142.88,170.1,521.63,Unlimited,SBD,M,
Boys,89.81,11,Rigo Munoz,Premont,89.36,172.37,88.45,183.7,444.52,Unlimited,SBD,M,
Boys,89.81,12,Jaiden Hernandez,Beeville Jones,86.27,142.88,88.45,165.56,396.89,Unlimited,SBD,M,
Boys,89.81,13,Chad Aguilar,Corpus Christi West Oso,89.18,129.27,102.06,147.42,378.75,Unlimited,SBD,M,
Boys,89.81,14,Tyler Montez,Skidmore-Tynan,83.37,138.35,90.72,131.54,360.61,Unlimited,SBD,M,
Boys,89.81,DQ,Damien McElroy,Beeville Jones,87.23,,,,,Unlimited,SBD,M,
Boys,99.79,1,Gerardo Gonzalez,Cotulla,92.53,317.51,226.8,265.35,809.66,Unlimited,SBD,M,
Boys,99.79,2,Orlando Cantu,Alice,94.35,285.76,183.7,260.82,730.28,Unlimited,SBD,M,
Boys,99.79,3,Kayden Leal,Victoria West,95.53,288.03,188.24,247.21,723.48,Unlimited,SBD,M,
Boys,99.79,4,Braedyn Garland,Victoria West,99.16,278.96,197.31,231.33,707.6,Unlimited,SBD,M,
Boys,99.79,5,Jallen Medina,George West,96.8,299.37,158.76,231.33,689.46,Unlimited,SBD,M,
Boys,99.79,6,Kade Alston,Rockport-Fulton,96.98,267.62,183.7,238.14,689.46,Unlimited,SBD,M,
Boys,99.79,7,Josh Stillman,Ingleside,99.79,247.21,174.63,233.6,655.44,Unlimited,SBD,M,
Boys,99.79,8,Logan McGrath,Ingleside,98.52,226.8,183.7,213.19,623.69,Unlimited,SBD,M,
Boys,99.79,9,Brenham Tumlinson,Victoria East,95.53,226.8,183.7,208.65,619.15,Unlimited,SBD,M,
Boys,99.79,10,Jevin Gonzalez,Cotulla,92.99,233.6,192.78,183.7,610.08,Unlimited,SBD,M,
Boys,99.79,11,Frank Fischer,Port Lavaca Calhoun,93.17,208.65,136.08,249.48,594.21,Unlimited,SBD,M,
Boys,99.79,12,Jo Jo Martinez,Goliad,92.53,231.33,161.03,185.97,578.33,Unlimited,SBD,M,
Boys,99.79,13,Torre Castillo,Port Lavaca Calhoun,90.54,192.78,158.76,213.19,564.72,Unlimited,SBD,M,
Boys,99.79,14,Dominic Smith,Beeville Jones,97.57,201.85,145.15,213.19,560.19,Unlimited,SBD,M,
Boys,99.79,15,Jarin Oatis,Victoria West,97.98,226.8,142.88,147.42,517.1,Unlimited,SBD,M,
Boys,99.79,16,Noah Christian,Alice,95.89,170.1,124.74,192.78,487.61,Unlimited,SBD,M,
Boys,99.79,17,Xavier Lussier,Skidmore-Tynan,97.98,195.04,113.4,176.9,485.34,Unlimited,SBD,M,
Boys,99.79,18,Izaiah Gomez,Banquete,95.71,163.29,124.74,165.56,453.59,Unlimited,SBD,M,
Boys,99.79,19,Idan Solis,Ingleside,99.06,181.44,104.33,167.83,453.59,Unlimited,SBD,M,
Boys,99.79,20,Manuel Alvarez,Corpus Christi West Oso,94.17,154.22,92.99,147.42,394.63,Unlimited,SBD,M,
Boys,99.79,21,Rosario Luna,Skidmore-Tynan,96.89,136.08,83.91,138.35,358.34,Unlimited,SBD,M,
Boys,99.79,22,Ernesto DeLeon,Skidmore-Tynan,96.98,136.08,77.11,136.08,349.27,Unlimited,SBD,M,
Boys,99.79,DQ,Zane Wills,Banquete,93.98,,,,,Unlimited,SBD,M,
Boys,99.79,DQ,Silas Shaw,George West,90.17,190.51,136.08,,,Unlimited,SBD,M,
Boys,99.79,DQ,Justin Leal,Mathis,97.79,,,,,Unlimited,SBD,M,
Boys,99.79,DQ,Brody Butler,Goliad,93.8,,,,,Unlimited,SBD,M,
Boys,109.77,1,Cayetano Vidaurri,Beeville Jones,109.68,362.87,231.33,278.96,873.17,Unlimited,SBD,M,
Boys,109.77,2,Ram Cantu,Alice,107.77,283.5,244.94,242.67,771.11,Unlimited,SBD,M,
Boys,109.77,3,Jacob Martin,Beeville Jones,101.24,260.82,185.97,238.14,684.92,Unlimited,SBD,M,
Boys,109.77,4,Jake Jenkins,Port Lavaca Calhoun,105.41,249.48,197.31,208.65,655.44,Unlimited,SBD,M,
Boys,109.77,5,Ethan Sanchez,Beeville Jones,107.23,274.42,145.15,226.8,646.37,Unlimited,SBD,M,
Boys,109.77,6,Tyler Fox,Banquete,108.86,254.01,127.01,222.26,603.28,Unlimited,SBD,M,
Boys,109.77,7,Fidel Alvarez,Cotulla,103.51,233.6,172.37,192.78,598.74,Unlimited,SBD,M,
Boys,109.77,8,Joshua Young,Victoria East,103.42,199.58,151.95,197.31,548.85,Unlimited,SBD,M,
Boys,109.77,9,Landon Strickland,Port Lavaca Calhoun,109.04,238.14,113.4,192.78,544.31,Unlimited,SBD,M,
Boys,109.77,10,Efrain Cerranza,Mathis,107.95,204.12,124.74,183.7,512.56,Unlimited,SBD,M,
Boys,109.77,11,Oscar Villarreal,Skidmore-Tynan,108.68,195.04,124.74,172.37,492.15,Unlimited,SBD,M,
Boys,109.77,12,Brandon Galloway,Skidmore-Tynan,105.05,163.29,104.33,165.56,433.18,Unlimited,SBD,M,
Boys,109.77,13,Skeeter Aaron,Rockport-Fulton,107.68,163.29,108.86,158.76,430.91,Unlimited,SBD,M,
Boys,109.77,14,Matthias Woodruff,Rockport-Fulton,102.78,142.88,102.06,163.29,408.23,Unlimited,SBD,M,
Boys,124.74,1,Arnulfo Puga,Beeville Jones,122.83,324.32,204.12,260.82,789.25,Unlimited,SBD,M,
Boys,124.74,2,Manuel Hernandez,Beeville Jones,120.56,294.84,199.58,226.8,721.21,Unlimited,SBD,M,
Boys,124.74,3,Manuel Hinojosa,Ingleside,116.94,278.96,192.78,242.67,714.41,Unlimited,SBD,M,
Boys,124.74,4,Daniel García,Banquete,122.29,272.16,161.03,217.72,650.91,Unlimited,SBD,M,
Boys,124.74,5,Anthony Leyba,Corpus Christi West Oso,113.76,267.62,147.42,226.8,641.83,Unlimited,SBD,M,
Boys,124.74,6,Esai Escobar,Alice,122.56,238.14,154.22,231.33,623.69,Unlimited,SBD,M,
Boys,124.74,7,Damien Rosales,Victoria East,121.83,233.6,158.76,204.12,596.47,Unlimited,SBD,M,
Boys,124.74,8,Marcelo Armenta,Beeville Jones,121.74,265.35,127.01,199.58,591.94,Unlimited,SBD,M,
Boys,124.74,9,Aaron Gonzalez,Rockport-Fulton,111.95,213.19,131.54,197.31,542.04,Unlimited,SBD,M,
Boys,124.74,10,Nathan Morgan,Ingleside,110.22,185.97,129.27,190.51,505.76,Unlimited,SBD,M,
Boys,124.74,11,Erique Ramirez,Skidmore-Tynan,110.77,163.29,133.81,167.83,464.93,Unlimited,SBD,M,
Boys,124.74,DQ,Jesus Avila,Victoria West,117.39,260.82,192.78,,,Unlimited,SBD,M,
Boys,139.71,1,Jesus Martinez,Beeville Jones,139.03,274.42,215.46,269.89,759.77,Unlimited,SBD,M,
Boys,139.71,2,Noah Cano,Victoria East,137.98,317.51,208.65,226.8,752.96,Unlimited,SBD,M,
Boys,139.71,3,Victor Moreno,Cotulla,137.98,249.48,192.78,265.35,707.6,Unlimited,SBD,M,
Boys,139.71,4,Estevan Cabrera,Alice,129.46,258.55,208.65,201.85,669.05,Unlimited,SBD,M,
Boys,139.71,5,Tyler Rosales,Alice,134.63,254.01,170.1,197.31,621.42,Unlimited,SBD,M,
Boys,139.71,6,Gavin Chavez,Port Lavaca Calhoun,127.1,249.48,161.03,208.65,619.15,Unlimited,SBD,M,
Boys,139.71,7,Elijah Flores,Victoria West,127.91,238.14,156.49,201.85,596.47,Unlimited,SBD,M,
Boys,139.71,DQ,Jaeden Fraire,Victoria West,139.43,,,,,Unlimited,SBD,M,
Boys,139.71+,1,Peyton Torres,Beeville Jones,162.7,319.78,233.6,244.94,798.32,Unlimited,SBD,M,
Boys,139.71+,2,Artemio Herrera,Port Lavaca Calhoun,161.48,317.51,208.65,244.94,771.11,Unlimited,SBD,M,
Boys,139.71+,3,Landry Kuykendall,Rockport-Fulton,168.83,272.16,142.88,226.8,641.83,Unlimited,SBD,M,
Boys,139.71+,4,Wyatt Smith,George West,143.97,249.48,163.29,206.38,619.15,Unlimited,SBD,M,
Boys,139.71+,5,Zalerrion Jones,Victoria East,140.89,226.8,158.76,192.78,578.33,Unlimited,SBD,M,
Boys,139.71+,6,Lupito Vela,Goliad,145.15,219.99,158.76,197.31,576.06,Unlimited,SBD,M,
Boys,139.71+,7,Jose Flores,Skidmore-Tynan,168.1,206.38,140.61,195.04,542.04,Unlimited,SBD,M,
Boys,139.71+,8,Ben Shaw,George West,148.87,158.76,124.74,158.76,442.25,Unlimited,SBD,M,
Boys,139.71+,DQ,Matt Rodriguez,Victoria West,141.16,,,,,Unlimited,SBD,M,
