Division,WeightClassKg,Place,Name,Team,BodyweightKg,Best3SquatKg,Best3BenchKg,Best3DeadliftKg,TotalKg,Equipment,Event,Sex,BirthDate
Boys,51.71,1,Kam Rodriguez,Houston Spring Woods,50.17,147.42,92.99,158.76,399.16,Unlimited,SBD,M,
Boys,55.79,1,Connor Lamar,Waller,55.02,138.35,79.38,142.88,360.61,Unlimited,SBD,M,
Boys,59.87,1,Jaydon Rodriguez,Waller,59.83,138.35,90.72,147.42,376.48,Unlimited,SBD,M,
Boys,59.87,2,Spencer Ellis,Caldwell,57.61,122.47,65.77,129.27,317.51,Unlimited,SBD,M,
Boys,67.13,1,Noah Carpenter,College Station A&M Cons,64.41,190.51,120.2,174.63,485.34,Unlimited,SBD,M,
Boys,67.13,2,Matthew Hunter,College Station A&M Cons,64,181.44,111.13,170.1,462.66,Unlimited,SBD,M,
Boys,67.13,3,Joseph Berry,Houston Stratford,65.18,179.17,102.06,174.63,455.86,Unlimited,SBD,M,
Boys,67.13,4,Sean Delgado,Houston Spring Woods,64.27,95.25,72.57,92.99,260.82,Unlimited,SBD,M,
Boys,74.84,1,Wyatt Boeing,College Station A&M Cons,71.8,174.63,142.88,174.63,492.15,Unlimited,SBD,M,
Boys,82.1,1,Charles Rudolph,College Station A&M Cons,76.93,210.92,138.35,185.97,535.24,Unlimited,SBD,M,
Boys,82.1,2,Hayden West,College Station A&M Cons,78.29,165.56,138.35,172.37,476.27,Unlimited,SBD,M,
Boys,82.1,3,Kevin Martínez,Caldwell,78.02,165.56,115.67,179.17,460.4,Unlimited,SBD,M,
Boys,82.1,4,Michael Butler,Caldwell,77.56,163.29,99.79,181.44,444.52,Unlimited,SBD,M,
Boys,82.1,5,Justin Hardman,Waller,80.24,158.76,102.06,183.7,444.52,Unlimited,SBD,M,
Boys,82.1,6,John Fryrear,Caldwell,81.19,140.61,88.45,136.08,365.14,Unlimited,SBD,M,
Boys,82.1,7,Alexis Torres,Houston Spring Woods,76.48,151.95,70.31,124.74,347,Unlimited,SBD,M,
Boys,89.81,1,Ryan Chim,Waller,85.68,238.14,183.7,201.85,623.69,Unlimited,SBD,M,
Boys,89.81,2,Jack LaFleur,Houston Spring Woods,88.04,206.38,136.08,210.92,553.38,Unlimited,SBD,M,
Boys,89.81,3,Jeremiah Botts,Houston Spring Woods,89.81,215.46,136.08,192.78,544.31,Unlimited,SBD,M,
Boys,89.81,4,Ethan Burke,Houston Stratford,88.45,206.38,124.74,201.85,532.97,Unlimited,SBD,M,
Boys,89.81,5,Fernando Torres,Houston Spring Woods,86.41,199.58,117.93,192.78,510.29,Unlimited,SBD,M,
Boys,89.81,6,Elgrande Gunner,Waller,88.36,197.31,97.52,206.38,501.22,Unlimited,SBD,M,
Boys,89.81,7,Michael Javaherian,Houston Spring Woods,85.37,174.63,120.2,192.78,487.61,Unlimited,SBD,M,
Boys,89.81,8,Calvin Baker,College Station A&M Cons,83.91,179.17,111.13,183.7,474,Unlimited,SBD,M,
Boys,89.81,9,Josh Wilson,Caldwell,85.73,161.03,113.4,176.9,451.32,Unlimited,SBD,M,
Boys,89.81,10,Henry Bellard,Houston Spring Woods,86.68,142.88,63.5,111.13,317.51,Unlimited,SBD,M,
Boys,89.81,DQ,Mark McGarr,College Station A&M Cons,86.41,219.99,127.01,,,Unlimited,SBD,M,
Boys,99.79,1,Cristian Gonzalez,Houston Spring Woods,98.43,283.5,183.7,258.55,725.75,Unlimited,SBD,M,
Boys,99.79,2,Kourtavion Hutchinson,College Station A&M Cons,89.9,226.8,163.29,233.6,623.69,Unlimited,SBD,M,
Boys,99.79,3,Edgar Vite,Houston Spring Woods,97.61,238.14,142.88,226.8,607.81,Unlimited,SBD,M,
Boys,99.79,4,David Alvarez,Waller,97.61,188.24,138.35,192.78,519.36,Unlimited,SBD,M,
Boys,99.79,5,Myles Riggs,College Station A&M Cons,90.22,183.7,120.2,188.24,492.15,Unlimited,SBD,M,
Boys,99.79,6,Matthew Torres,Waller,99.7,197.31,111.13,174.63,483.08,Unlimited,SBD,M,
Boys,99.79,7,Logan Raymond,Caldwell,92.08,179.17,102.06,188.24,469.47,Unlimited,SBD,M,
Boys,99.79,8,Alex Perez,Waller,99.38,158.76,83.91,181.44,424.11,Unlimited,SBD,M,
Boys,99.79,DQ,Jose Lopez,Houston Spring Woods,96.84,,,,,Unlimited,SBD,M,
Boys,109.77,1,Beckham McGuire,College Station A&M Cons,108.95,265.35,172.37,222.26,659.98,Unlimited,SBD,M,
Boys,109.77,2,Wyatt Beavers,College Station A&M Cons,102.83,226.8,133.81,204.12,564.72,Unlimited,SBD,M,
Boys,109.77,3,Judson Brown,College Station A&M Cons,105.82,183.7,142.88,183.7,510.29,Unlimited,SBD,M,
Boys,109.77,4,Josiah Blanco,College Station A&M Cons,108.14,185.97,129.27,188.24,503.49,Unlimited,SBD,M,
Boys,109.77,5,Joshua Martinez,Houston Spring Woods,103.51,58.97,52.16,83.91,195.04,Unlimited,SBD,M,
Boys,124.74,1,Luke Freeman,Caldwell,115.21,238.14,129.27,226.8,594.21,Unlimited,SBD,M,
Boys,124.74,2,Carson Jordan,Waller,122.65,165.56,92.99,192.78,451.32,Unlimited,SBD,M,
Boys,139.71,1,Leighton Geiman,Waller,127.1,249.48,206.38,226.8,682.66,Unlimited,SBD,M,
Boys,139.71,2,Isaiahs Moreno,Waller,127.5,260.82,158.76,256.28,675.85,Unlimited,SBD,M,
Boys,139.71+,1,Saiosi Patton,Houston Spring Woods,194.5,272.16,154.22,226.8,653.17,Unlimited,SBD,M,
Boys,,NS,Jacob Castaneda,Houston Spring Woods,,,,,,Unlimited,SBD,M,
Boys,,NS,Marcus Cruz,Waller,,,,,,Unlimited,SBD,M,
Boys,,NS,Elijah Rogers,Caldwell,,,,,,Unlimited,SBD,M,
