Division,WeightClassKg,Place,Name,Team,BodyweightKg,Best3SquatKg,Best3BenchKg,Best3DeadliftKg,TotalKg,Equipment,Event,Sex,BirthDate
Girls,47.85,1,Kamryn Rucker,Montgomery Lake Creek,46.08,70.31,36.29,79.38,185.97,Unlimited,SBD,F,
Girls,47.85,2,Jazmine Adair,Waller,45.18,54.43,38.56,70.31,163.29,Unlimited,SBD,F,
Girls,51.94,1,Gaby Duhon,WALLER,51.94,104.33,47.63,104.33,256.28,Unlimited,SBD,F,
Girls,51.94,2,Hannah Irving,Montgomery Lake Creek,50.8,88.45,47.63,95.25,231.33,Unlimited,SBD,F,
Girls,51.94,DQ,Cassidy Arceneaux,Huntsville,49.53,,,,,Unlimited,SBD,F,
Girls,56.02,1,Claudia Garcia,New Caney West Fork,55.88,99.79,47.63,117.93,265.35,Unlimited,SBD,F,
Girls,56.02,2,Avery Maturin,Montgomery Lake Creek,56.02,90.72,49.9,88.45,229.06,Unlimited,SBD,F,
Girls,56.02,DQ,Ana Sofia Abshire,New Caney West Fork,55.79,,,,,Unlimited,SBD,F,
Girls,60.1,1,Hadley Kelly #1,Magnolia,59.19,167.83,86.18,149.69,403.7,Unlimited,SBD,F,
Girls,60.1,2,Kaylee Gleason,WALLER,59.87,147.42,68.04,133.81,349.27,Unlimited,SBD,F,
Girls,60.1,3,Paige Matthews,Magnolia,59.78,129.27,74.84,127.01,331.12,Unlimited,SBD,F,
Girls,60.1,4,Taylor Grohman,Magnolia West,60.06,113.4,65.77,127.01,306.17,Unlimited,SBD,F,
Girls,60.1,5,Avery Pinz,Montgomery Lake Creek,59.15,117.93,65.77,117.93,301.64,Unlimited,SBD,F,
Girls,60.1,6,Elizabeth Sanchez #5,Magnolia,56.93,90.72,36.29,72.57,199.58,Unlimited,SBD,F,
Girls,60.1,7,Shanell Ruiz,Magnolia,59.87,97.52,52.16,,149.69,Unlimited,SB,F,
Girls,60.1,8,Kallie Geigley,WALLER,59.87,52.16,22.68,70.31,145.15,Unlimited,SBD,F,
Girls,60.1,DQ,Sophia Kastner,Montgomery Lake Creek,59.87,,,,,Unlimited,SBD,F,
Girls,67.36,1,Alie Tompkins,Montgomery Lake Creek,64.59,147.42,72.57,127.01,347,Unlimited,SBD,F,
Girls,67.36,2,Kylie Knepprath,Magnolia West,65.86,131.54,63.5,131.54,326.59,Unlimited,SBD,F,
Girls,67.36,3,Kenia Santana,Magnolia,66.95,124.74,58.97,124.74,308.44,Unlimited,SBD,F,
Girls,67.36,4,Anna Kinney,Magnolia West,64.77,102.06,88.45,113.4,303.91,Unlimited,SBD,F,
Girls,67.36,5,Baylee VanScoyk,Conroe Oak Ridge,67.36,108.86,56.7,113.4,278.96,Unlimited,SBD,F,
Girls,67.36,6,Samantha Manteca,WALLER,60.51,102.06,56.7,97.52,256.28,Unlimited,SBD,F,
Girls,67.36,7,Olivia Jackson,Magnolia,65.41,97.52,54.43,102.06,254.01,Unlimited,SBD,F,
Girls,67.36,8,Anastasia Johnson,Magnolia,67.13,88.45,56.7,99.79,244.94,Unlimited,SBD,F,
Girls,67.36,9,Rylee Wright,Montgomery Lake Creek,62.69,90.72,61.23,88.45,240.4,Unlimited,SBD,F,
Girls,67.36,10,Addison Cahal,Magnolia,67.04,81.65,54.43,90.72,226.8,Unlimited,SBD,F,
Girls,67.36,11,Addyson Swann,Montgomery Lake Creek,61.96,92.99,43.09,88.45,224.53,Unlimited,SBD,F,
Girls,67.36,DQ,Mallory Capehart,Magnolia,67.31,104.33,,113.4,,Unlimited,SBD,F,
Girls,67.36,DQ,Alivia Newton,Huntsville,63.32,86.18,,,,Unlimited,SBD,F,
Girls,67.36,DQ,Alannah Salazar,Magnolia,64.14,,,,,Unlimited,SBD,F,
Girls,75.07,1,Maci Moore,Magnolia,74.53,115.67,58.97,129.27,303.91,Unlimited,SBD,F,
Girls,75.07,2,Bailey Cooper,Magnolia,74.71,120.2,63.5,117.93,301.64,Unlimited,SBD,F,
Girls,75.07,3,Addison Mccain,Magnolia,73.12,72.57,36.29,99.79,208.65,Unlimited,SBD,F,
Girls,82.33,1,Kara Jackson,Huntsville,82.33,115.67,58.97,124.74,299.37,Unlimited,SBD,F,
Girls,82.33,2,Aracely Gallardo,Magnolia,80.83,111.13,56.7,104.33,272.16,Unlimited,SBD,F,
Girls,82.33,3,Jenna Hollis,Huntsville,82.19,92.99,52.16,106.59,251.74,Unlimited,SBD,F,
Girls,82.33,4,Abby Vasquez,Magnolia,82.33,92.99,52.16,99.79,244.94,Unlimited,SBD,F,
Girls,82.33,5,Makenzie Dietl,Montgomery Lake Creek,80.01,68.04,52.16,90.72,210.92,Unlimited,SBD,F,
Girls,90.04,1,Dimauri Crenshaw #1,Magnolia,89.81,129.27,74.84,120.2,324.32,Unlimited,SBD,F,
Girls,90.04,2,Jocelynn Pina,WALLER,89.81,102.06,40.82,122.47,265.35,Unlimited,SBD,F,
Girls,90.04,3,Amy Garcia,Magnolia,88.45,81.65,52.16,117.93,251.74,Unlimited,SBD,F,
Girls,90.04,4,Kennedy Box,Montgomery Lake Creek,85.73,95.25,52.16,102.06,249.48,Unlimited,SBD,F,
Girls,90.04,5,Grace La Fontaine,Magnolia,89.81,102.06,45.36,97.52,244.94,Unlimited,SBD,F,
Girls,90.04,6,Abigail Rojas,Conroe Oak Ridge,87.72,92.99,47.63,90.72,231.33,Unlimited,SBD,F,
Girls,100.02,1,Jayden Crowell,Magnolia West,94.08,170.1,74.84,154.22,399.16,Unlimited,SBD,F,
Girls,100.02,2,Maa Adodoadji,Montgomery Lake Creek,98.25,136.08,49.9,131.54,317.51,Unlimited,SBD,F,
Girls,100.02,3,Bayah Kubiak,Magnolia,98.57,117.93,70.31,122.47,310.71,Unlimited,SBD,F,
Girls,100.02,4,Erin Hime,Magnolia,93.08,83.91,47.63,102.06,233.6,Unlimited,SBD,F,
Girls,100.02,DQ,Kamryn Crosby,WALLER,95.62,,27.22,99.79,,Unlimited,SBD,F,
Girls,110,1,Darmesha Evans,Huntsville,108.32,136.08,79.38,147.42,362.87,Unlimited,SBD,F,
Girls,110,2,Lela Hollis,Huntsville,107.68,120.2,63.5,127.01,310.71,Unlimited,SBD,F,
Girls,110+,1,Kai Payne,Conroe Oak Ridge,144.61,133.81,79.38,129.27,342.46,Unlimited,SBD,F,
