Division,WeightClassKg,Place,Name,Team,BodyweightKg,Best3SquatKg,Best3BenchKg,Best3DeadliftKg,TotalKg,Equipment,Event,Sex,BirthDate
Boys,51.71,1,Kellan Pucket,Omaha Pewitt,48.99,88.45,63.5,102.06,254.01,Unlimited,SBD,M,
Boys,55.79,1,Alex Perez,Mount Pleasant,55.34,102.06,68.04,120.2,290.3,Unlimited,SBD,M,
Boys,55.79,2,Mason Russell,Omaha Pewitt,53.61,106.59,58.97,95.25,260.82,Unlimited,SBD,M,
Boys,55.79,3,Raider Shaddix,Omaha Pewitt,53.98,68.04,63.5,92.99,224.53,Unlimited,SBD,M,
Boys,59.87,1,Lucas Woolem,Ore City,58.69,199.58,113.4,172.37,485.34,Unlimited,SBD,M,
Boys,59.87,2,Clayton Bramlett,Paris Chisum,55.97,140.61,83.91,145.15,369.68,Unlimited,SBD,M,
Boys,59.87,3,Wyatt Tarver,Harleton,59.69,120.2,83.91,124.74,328.85,Unlimited,SBD,M,
Boys,59.87,4,Edwin Gutierrez,Omaha Pewitt,58.51,111.13,65.77,133.81,310.71,Unlimited,SBD,M,
Boys,59.87,5,Isaac Hernandez,Mount Pleasant,59.24,117.93,74.84,115.67,308.44,Unlimited,SBD,M,
Boys,59.87,6,Juan Lopez,Ore City,59.6,113.4,77.11,113.4,303.91,Unlimited,SBD,M,
Boys,59.87,7,Bryan Rodriguez,Omaha Pewitt,59.42,111.13,58.97,115.67,285.76,Unlimited,SBD,M,
Boys,59.87,DQ,Ethan Zeiger,Simms Bowie,57.29,95.25,,,,Unlimited,SBD,M,
Boys,59.87,DQ,Mason Dukes,Simms Bowie,58.6,,,,,Unlimited,SBD,M,
Boys,59.87,DQ,Kearon Pudron,Daingerfield,59.87,,,,,Unlimited,SBD,M,
Boys,67.13,1,Damarian Scott,Paris Chisum,66.41,197.31,106.59,213.19,517.1,Unlimited,SBD,M,
Boys,67.13,2,Champ Bailey,Omaha Pewitt,66.9,185.97,111.13,197.31,494.42,Unlimited,SBD,M,
Boys,67.13,3,Wyatt Easley,Paris Chisum,65.68,158.76,102.06,183.7,444.52,Unlimited,SBD,M,
Boys,67.13,4,Damian Humberto,Mount Pleasant,64.95,161.03,79.38,161.03,401.43,Unlimited,SBD,M,
Boys,67.13,5,Roman Cochran,Marshall,65.77,147.42,83.91,165.56,396.89,Unlimited,SBD,M,
Boys,67.13,6,Jeremias Arce,Paris Chisum,67.13,142.88,83.91,167.83,394.63,Unlimited,SBD,M,
Boys,67.13,7,Caleb Inocencio,Ore City,63.23,147.42,77.11,149.69,374.21,Unlimited,SBD,M,
Boys,67.13,8,Kayden Massie,Alba-Golden,61.6,133.81,88.45,145.15,367.41,Unlimited,SBD,M,
Boys,67.13,9,Travis Lair,Marshall,66.86,136.08,74.84,151.95,362.87,Unlimited,SBD,M,
Boys,67.13,10,Brody Hodges,Omaha Pewitt,65.14,140.61,81.65,138.35,360.61,Unlimited,SBD,M,
Boys,67.13,11,Jerrico Odum,Ore City,61.23,120.2,102.06,136.08,358.34,Unlimited,SBD,M,
Boys,67.13,12,Wiley Melton,Simms Bowie,64.41,102.06,81.65,127.01,310.71,Unlimited,SBD,M,
Boys,67.13,13,Tony Gray,Clarksville,66.5,111.13,65.77,131.54,308.44,Unlimited,SBD,M,
Boys,67.13,14,Ryan Moore,Mount Pleasant Chapel Hill,66.04,81.65,56.7,83.91,222.26,Unlimited,SBD,M,
Boys,67.13,DQ,Sam Leddy,Alba-Golden,63.87,129.27,92.99,,,Unlimited,SBD,M,
Boys,67.13,DQ,Josh Sanders,Harleton,61.87,,,,,Unlimited,SBD,M,
Boys,67.13,DQ,Joeby Pickering-Ciginero,Simms Bowie,62.69,99.79,63.5,,,Unlimited,SBD,M,
Boys,74.84,1,Luis Alvarado,Mount Pleasant,74.84,254.01,142.88,195.04,591.94,Unlimited,SBD,M,
Boys,74.84,2,Caleb Hygh,Marshall,73.03,206.38,120.2,224.53,551.11,Unlimited,SBD,M,
Boys,74.84,3,Jason Oquinn,Harleton,74.57,197.31,149.69,192.78,539.77,Unlimited,SBD,M,
Boys,74.84,4,Javontae Rivera,Daingerfield,67.77,183.7,97.52,197.31,478.54,Unlimited,SBD,M,
Boys,74.84,5,Mason Stroman,Simms Bowie,74.39,181.44,115.67,165.56,462.66,Unlimited,SBD,M,
Boys,74.84,6,Alex Pfingston,Alba-Golden,73.21,161.03,97.52,185.97,444.52,Unlimited,SBD,M,
Boys,74.84,7,Daniel Castillo,Mount Pleasant,69.04,151.95,83.91,183.7,419.57,Unlimited,SBD,M,
Boys,74.84,8,Noah Urizar,Paris Chisum,71.12,145.15,90.72,172.37,408.23,Unlimited,SBD,M,
Boys,74.84,9,Carter Embry,Paris Chisum,70.31,142.88,83.91,165.56,392.36,Unlimited,SBD,M,
Boys,74.84,10,Tristan Nunez,Clarksville,69.67,142.88,83.91,158.76,385.55,Unlimited,SBD,M,
Boys,74.84,11,Conor Seton,Alba-Golden,71.3,129.27,88.45,154.22,371.95,Unlimited,SBD,M,
Boys,74.84,12,Nathan Wall,Paris Chisum,72.67,124.74,83.91,163.29,371.95,Unlimited,SBD,M,
Boys,74.84,13,Armon Moore,Clarksville,73.66,136.08,81.65,131.54,349.27,Unlimited,SBD,M,
Boys,74.84,DQ,Trey'von Owens,Clarksville,72.76,,,,,Unlimited,SBD,M,
Boys,82.1,1,Lucas Duncan,Harleton,81.47,240.4,147.42,222.26,610.08,Unlimited,SBD,M,
Boys,82.1,2,Bryson Taylor,Mount Pleasant,81.92,219.99,151.95,219.99,591.94,Unlimited,SBD,M,
Boys,82.1,3,Isamel Thiessen,Paris Chisum,80.56,213.19,138.35,233.6,585.13,Unlimited,SBD,M,
Boys,82.1,4,Justin Robertson,Mount Pleasant,77.47,183.7,131.54,195.04,510.29,Unlimited,SBD,M,
Boys,82.1,5,Ethan Graf,Paris Chisum,80.2,131.54,81.65,161.03,374.21,Unlimited,SBD,M,
Boys,89.81,1,Juymill Lewis,Mount Pleasant,85,238.14,176.9,258.55,673.58,Unlimited,SBD,M,
Boys,89.81,2,Alex Holt,Harleton,83.64,210.92,136.08,204.12,551.11,Unlimited,SBD,M,
Boys,89.81,3,Gavin Anglin,Daingerfield,89.63,197.31,136.08,199.58,532.97,Unlimited,SBD,M,
Boys,89.81,4,Jeff Andrews,Ore City,85,195.04,133.81,199.58,528.44,Unlimited,SBD,M,
Boys,89.81,5,Edwuin Loredo,Marshall,85.18,197.31,122.47,201.85,521.63,Unlimited,SBD,M,
Boys,89.81,6,Dylan Ramirez,Mount Pleasant,87.27,170.1,104.33,185.97,460.4,Unlimited,SBD,M,
Boys,89.81,7,Bryson Lee,Daingerfield,88.18,149.69,115.67,195.04,460.4,Unlimited,SBD,M,
Boys,89.81,8,Thatcher Ford,Omaha Pewitt,89.58,145.15,97.52,158.76,401.43,Unlimited,SBD,M,
Boys,89.81,DQ,Lane Moilanen,Simms Bowie,82.19,111.13,,,,Unlimited,SBD,M,
Boys,99.79,1,Bruno DeLeon,Mount Pleasant,97.34,249.48,170.1,240.4,659.98,Unlimited,SBD,M,
Boys,99.79,2,Tre Inocencio,Ore City,97.61,249.48,163.29,226.8,639.57,Unlimited,SBD,M,
Boys,99.79,3,Seth Robertson,Mount Pleasant,98.7,210.92,145.15,226.8,582.87,Unlimited,SBD,M,
Boys,99.79,4,Braiden Ellis,Marshall,94.26,188.24,124.74,192.78,505.76,Unlimited,SBD,M,
Boys,99.79,5,Kent Odum,Ore City,93.53,181.44,138.35,163.29,483.08,Unlimited,SBD,M,
Boys,99.79,6,Brent Freeman,Omaha Pewitt,91.4,167.83,95.25,179.17,442.25,Unlimited,SBD,M,
Boys,99.79,7,Malachi Harmon,Simms Bowie,97.34,167.83,90.72,154.22,412.77,Unlimited,SBD,M,
Boys,99.79,8,Jarrett Leverett,Paris Chisum,96.98,142.88,92.99,163.29,399.16,Unlimited,SBD,M,
Boys,99.79,9,Lj Vance,Mount Pleasant Chapel Hill,99.43,147.42,70.31,170.1,387.82,Unlimited,SBD,M,
Boys,109.77,1,Jose Gonzalez,Mount Pleasant,108.68,319.78,238.14,233.6,791.52,Unlimited,SBD,M,
Boys,109.77,2,Noel Fajardo,Harleton,104.33,294.84,188.24,285.76,768.84,Unlimited,SBD,M,
Boys,109.77,3,David Carlisle,Marshall,105.87,294.84,192.78,254.01,741.62,Unlimited,SBD,M,
Boys,109.77,4,Landen Jones,Marshall,103.24,235.87,129.27,242.67,607.81,Unlimited,SBD,M,
Boys,109.77,5,Kaison Carmack,Harleton,104.6,190.51,115.67,170.1,476.27,Unlimited,SBD,M,
Boys,109.77,6,Ezequiel Ruiz,Omaha Pewitt,108.64,165.56,97.52,151.95,415.04,Unlimited,SBD,M,
Boys,124.74,1,Bryce Lockhart,Harleton,118.39,263.08,208.65,254.01,725.75,Unlimited,SBD,M,
Boys,124.74,2,Trace Moreland,Paris Chisum,111.58,199.58,129.27,192.78,521.63,Unlimited,SBD,M,
Boys,124.74,DQ,Nick Wallace,Daingerfield,116.66,249.48,142.88,,,Unlimited,SBD,M,
Boys,139.71,1,Donald Veasley,Ore City,127.46,256.28,197.31,249.48,703.07,Unlimited,SBD,M,
Boys,139.71,2,Antwone Sims,Marshall,130.09,206.38,136.08,235.87,578.33,Unlimited,SBD,M,
Boys,139.71,3,Jack Floyd,Harleton,127.64,229.06,138.35,195.04,562.45,Unlimited,SBD,M,
Boys,139.71+,1,Kayden Johnson,Harleton,145.88,283.5,181.44,233.6,698.53,Unlimited,SBD,M,
Boys,139.71+,2,Colton Fugler,Harleton,145.88,233.6,156.49,190.51,580.6,Unlimited,SBD,M,
Boys,139.71+,3,Breon Williams,Marshall,154.22,192.78,120.2,235.87,548.85,Unlimited,SBD,M,
